{
    "version": "1.4.0",
    "autoload": {
        "Kpad": "Kpad",
        "HID 04d9:1203": "KPAD",
        "Wooting WootingOne": "WOOT1"
    },
    "macros": {
        "keystroke_sleep_ms": 10
    },
    "gamepad": {
        "joystick": {
            "non_linearity": 4,
            "pointer_speed": 80,
            "left_purpose": "none",
            "right_purpose": "none",
            "x_scroll_speed": 2,
            "y_scroll_speed": 0.5
        }
    }
}
